{
  "list": [
    {
      "firstName": 2124,
      "lastName": 2122,
      "fullName": 212112
    },
    {
      "firstName": 2132,
      "lastName": 2132,
      "fullName": 21312
    },
    {
      "firstName": 2133,
      "lastName": 2132,
      "fullName": 21312
    }
  ],
  "tours": [
    {
      "createTime": "2015-05-15 15:21:25",
      "id": 61409,
      "name": "乐山+峨眉山2日跟团游·船游+两进峨眉(销售冠军 2人减300)",
      "supplier": null,
      "user": {
        "id": 1,
        "name": "陈浩南",
        "phone": ""
      }
    },
    {
      "createTime": "2015-05-15 15:19:21",
      "id": 1632407,
      "name": "都江堰+青城山2日跟团游",
      "supplier": null,
      "user": {
        "id": 1,
        "name": "陈浩南",
        "phone": ""
      }
    },
    {
      "createTime": "2015-05-14 11:31:56",
      "id": 2816082,
      "name": "AAAAA",
      "supplier": {
        "id": 367
      },
      "user": {
        "id": 481,
        "name": null,
        "phone": "13011112222"
      }
    },
    {
      "createTime": "2015-06-17 16:49:04",
      "id": 2816520,
      "name": "九寨、黄龙、若尔盖、花湖、九曲黄河第一湾 精品四日游",
      "supplier": {
        "id": 497
      },
      "user": {
        "id": 562,
        "name": null,
        "phone": "13056666330"
      }
    },
    {
      "createTime": "2015-06-17 17:43:32",
      "id": 2816524,
      "name": "童话世界—九寨沟、黄龙碧海四日游",
      "supplier": {
        "id": 497
      },
      "user": {
        "id": 562,
        "name": null,
        "phone": "13056666330"
      }
    }
  ],
  "pagination": {
    "count": 2213,
    "currentPage": 1,
    "pageCount": 443,
    "pageSize": 5
  }
}